-- Merging decision tree log ---
manifest
ADDED from /Users/michael.ziray/Development/BSU/2016-Android-Spring/repo/example code/WidgetExample/app/src/main/AndroidManifest.xml:2:1-25:12
	package
		ADDED from /Users/michael.ziray/Development/BSU/2016-Android-Spring/repo/example code/WidgetExample/app/src/main/AndroidManifest.xml:3:2-44
		INJECTED from /Users/michael.ziray/Development/BSU/2016-Android-Spring/repo/example code/WidgetExample/app/src/main/AndroidManifest.xml
		INJECTED from /Users/michael.ziray/Development/BSU/2016-Android-Spring/repo/example code/WidgetExample/app/src/main/AndroidManifest.xml
	android:versionName
		ADDED from /Users/michael.ziray/Development/BSU/2016-Android-Spring/repo/example code/WidgetExample/app/src/main/AndroidManifest.xml:4:2-27
		INJECTED from /Users/michael.ziray/Development/BSU/2016-Android-Spring/repo/example code/WidgetExample/app/src/main/AndroidManifest.xml
		INJECTED from /Users/michael.ziray/Development/BSU/2016-Android-Spring/repo/example code/WidgetExample/app/src/main/AndroidManifest.xml
	android:versionCode
		ADDED from /Users/michael.ziray/Development/BSU/2016-Android-Spring/repo/example code/WidgetExample/app/src/main/AndroidManifest.xml:3:45-68
		INJECTED from /Users/michael.ziray/Development/BSU/2016-Android-Spring/repo/example code/WidgetExample/app/src/main/AndroidManifest.xml
		INJECTED from /Users/michael.ziray/Development/BSU/2016-Android-Spring/repo/example code/WidgetExample/app/src/main/AndroidManifest.xml
	xmlns:android
		ADDED from /Users/michael.ziray/Development/BSU/2016-Android-Spring/repo/example code/WidgetExample/app/src/main/AndroidManifest.xml:2:11-69
uses-sdk
ADDED from /Users/michael.ziray/Development/BSU/2016-Android-Spring/repo/example code/WidgetExample/app/src/main/AndroidManifest.xml:5:2-40
	android:targetSdkVersion
		INJECTED from /Users/michael.ziray/Development/BSU/2016-Android-Spring/repo/example code/WidgetExample/app/src/main/AndroidManifest.xml
		INJECTED from /Users/michael.ziray/Development/BSU/2016-Android-Spring/repo/example code/WidgetExample/app/src/main/AndroidManifest.xml
	android:minSdkVersion
		ADDED from /Users/michael.ziray/Development/BSU/2016-Android-Spring/repo/example code/WidgetExample/app/src/main/AndroidManifest.xml:5:12-37
		INJECTED from /Users/michael.ziray/Development/BSU/2016-Android-Spring/repo/example code/WidgetExample/app/src/main/AndroidManifest.xml
		INJECTED from /Users/michael.ziray/Development/BSU/2016-Android-Spring/repo/example code/WidgetExample/app/src/main/AndroidManifest.xml
application
ADDED from /Users/michael.ziray/Development/BSU/2016-Android-Spring/repo/example code/WidgetExample/app/src/main/AndroidManifest.xml:7:2-24:16
	android:label
		ADDED from /Users/michael.ziray/Development/BSU/2016-Android-Spring/repo/example code/WidgetExample/app/src/main/AndroidManifest.xml:7:45-77
	android:icon
		ADDED from /Users/michael.ziray/Development/BSU/2016-Android-Spring/repo/example code/WidgetExample/app/src/main/AndroidManifest.xml:7:15-44
activity#com.eightbitcloud.example.widget.WidgetExampleActivity
ADDED from /Users/michael.ziray/Development/BSU/2016-Android-Spring/repo/example code/WidgetExample/app/src/main/AndroidManifest.xml:8:3-14:14
	android:label
		ADDED from /Users/michael.ziray/Development/BSU/2016-Android-Spring/repo/example code/WidgetExample/app/src/main/AndroidManifest.xml:9:4-36
	android:name
		ADDED from /Users/michael.ziray/Development/BSU/2016-Android-Spring/repo/example code/WidgetExample/app/src/main/AndroidManifest.xml:8:13-50
intent-filter#android.intent.action.MAIN+android.intent.category.LAUNCHER
ADDED from /Users/michael.ziray/Development/BSU/2016-Android-Spring/repo/example code/WidgetExample/app/src/main/AndroidManifest.xml:10:4-13:20
action#android.intent.action.MAIN
ADDED from /Users/michael.ziray/Development/BSU/2016-Android-Spring/repo/example code/WidgetExample/app/src/main/AndroidManifest.xml:11:5-57
	android:name
		ADDED from /Users/michael.ziray/Development/BSU/2016-Android-Spring/repo/example code/WidgetExample/app/src/main/AndroidManifest.xml:11:13-54
category#android.intent.category.LAUNCHER
ADDED from /Users/michael.ziray/Development/BSU/2016-Android-Spring/repo/example code/WidgetExample/app/src/main/AndroidManifest.xml:12:5-65
	android:name
		ADDED from /Users/michael.ziray/Development/BSU/2016-Android-Spring/repo/example code/WidgetExample/app/src/main/AndroidManifest.xml:12:15-62
receiver#com.eightbitcloud.example.widget.ExampleAppWidgetProvider
ADDED from /Users/michael.ziray/Development/BSU/2016-Android-Spring/repo/example code/WidgetExample/app/src/main/AndroidManifest.xml:16:3-22:14
	android:label
		ADDED from /Users/michael.ziray/Development/BSU/2016-Android-Spring/repo/example code/WidgetExample/app/src/main/AndroidManifest.xml:16:54-89
	android:name
		ADDED from /Users/michael.ziray/Development/BSU/2016-Android-Spring/repo/example code/WidgetExample/app/src/main/AndroidManifest.xml:16:13-53
intent-filter#android.appwidget.action.APPWIDGET_UPDATE+com.eightbitcloud.example.widget.8BITCLOCK_WIDGET_UPDATE
ADDED from /Users/michael.ziray/Development/BSU/2016-Android-Spring/repo/example code/WidgetExample/app/src/main/AndroidManifest.xml:17:4-20:25
action#android.appwidget.action.APPWIDGET_UPDATE
ADDED from /Users/michael.ziray/Development/BSU/2016-Android-Spring/repo/example code/WidgetExample/app/src/main/AndroidManifest.xml:18:5-72
	android:name
		ADDED from /Users/michael.ziray/Development/BSU/2016-Android-Spring/repo/example code/WidgetExample/app/src/main/AndroidManifest.xml:18:13-69
action#com.eightbitcloud.example.widget.8BITCLOCK_WIDGET_UPDATE
ADDED from /Users/michael.ziray/Development/BSU/2016-Android-Spring/repo/example code/WidgetExample/app/src/main/AndroidManifest.xml:19:13-95
	android:name
		ADDED from /Users/michael.ziray/Development/BSU/2016-Android-Spring/repo/example code/WidgetExample/app/src/main/AndroidManifest.xml:19:21-92
meta-data#android.appwidget.provider
ADDED from /Users/michael.ziray/Development/BSU/2016-Android-Spring/repo/example code/WidgetExample/app/src/main/AndroidManifest.xml:21:4-96
	android:resource
		ADDED from /Users/michael.ziray/Development/BSU/2016-Android-Spring/repo/example code/WidgetExample/app/src/main/AndroidManifest.xml:21:57-93
	android:name
		ADDED from /Users/michael.ziray/Development/BSU/2016-Android-Spring/repo/example code/WidgetExample/app/src/main/AndroidManifest.xml:21:15-56
